공공데이터 포털 open API 이용하기
…
각 tibble을 bind_rows()를 이용하여 하나의 tibble로 만들어줍니다.

tmp2 <- bind_rows(tmp1)
tmp2

# A tibble: 130 x 3
     idx key            value                               
   <int> <chr>          <chr>                               
 1     1 balPayments    "-93603291"                         
 2     1 expDlr         "150822"                            
 3     1 expWgt         "18003"                             
 4     1 hsCd           "0202"                              
 5     1 impDlr         "93754113"                          
 6     1 impWgt         "14809834"                          
 7     1 statCd         "US"                                
 8     1 statCdCntnKor1 "미국"                              
 9     1 statKor        "쇠고기(냉동한 것으로 한정한다)\r\n"
10     1 year           "2016.01"                           
# ... with 120 more rows
…
